{
	"cars": [
		{
			"id": 1,
			"brand": "BMW",
			"model": "750i",
			"generation": 6,
			"colorDetails": {
				"color": "Schwarz",
				"code": "668"
			},
			"engine": {
				"displacement": 4395,
				"cylinderSystem": "V8",
				"power": 450
			},
			"interior": {
				"frontSeats": {
					"heated": true,
					"ventilated": true,
					"massage": true
				},
				"backSeats": {
					"heated": true,
					"ventilated": true,
					"massage": false
				},
				"securityPackage": {},
				"extras": {
					"heatedSteeringWheel": true,
					"smokerPackage": true
				}
			},
			"productionHistory": [
				{
					"date": "22.01.2021",
					"description": "Car manufactured"
				},
				{
					"date": "01.02.2021",
					"description": "Car put on parking slot"
				},
				{
					"date": "21.02.2021",
					"description": "Shippment prepratation"
				},
				{
					"date": "01.03.2021",
					"description": "Car shipped"
				}
			]
		},
		{
			"id": 2,
			"brand": "BMW",
			"model": "740i",
			"generation": 6,
			"colorDetails": {
				"color": "Alpinweiss ",
				"code": "146"
			},
			"engine": {
				"displacement": 2998,
				"cylinderSystem": "R6",
				"power": 326
			},
			"interior": {
				"frontSeats": {
					"heated": false,
					"ventilated": false,
					"massage": false
				},
				"backSeats": {
					"heated": false,
					"ventilated": false,
					"massage": false
				},
				"securityPackage": {
					"bulletproofWindows": true,
					"steelSecuredBody": true,
					"antiExplosionFloor": true,
					"specialTires": {
						"tireTread": 35,
						"tireReinforcement": "Run Flat",
						"tirePressureSensor": "High Pressure type 3"
					},
					"healthMonitorSystem": {
						"backupAirSystem": {
							"airCapacity": 50,
							"airPowerAuxiliary": "Ultra long life Chonker2000 24V, 5A, 2000W, 12h"
						},
						"firstAid": {
							"severedLimbsAid": true,
							"gunShotWoundsAid": {
								"cal5_6mmAid": true,
								"cal7_62mmAid": true,
								"cal9mmAid": true,
								"cal9_5mmAid": false,
								"cal13mmAid": false
							}
						}
					}
				},
				"extras": {
					"heatedSteeringWheel": false,
					"smokerPackage": false
				}
			},
			"productionHistory": [
				{
					"date": "01.01.2022",
					"description": "Car manufactured"
				},
				{
					"date": "02.01.2022",
					"description": "Car put on parking slot"
				},
				{
					"date": "03.01.2022",
					"description": "Shippment prepratation"
				},
				{
					"date": "04.01.2022",
					"description": "Car shipped"
				}
			]
		},
		{
			"id": 3,
			"brand": "BMW",
			"model": "M760Li",
			"generation": 6,
			"colorDetails": {
				"color": "Frozen Blue",
				"code": "B94"
			},
			"engine": {
				"displacement": 6592,
				"cylinderSystem": "V12",
				"power": 610
			},
			"interior": {
				"frontSeats": {
					"heated": true,
					"ventilated": true,
					"massage": true
				},
				"backSeats": {
					"heated": true,
					"ventilated": true,
					"massage": true
				},
				"securityPackage": {},
				"extras": {
					"heatedSteeringWheel": true,
					"smokerPackage": true,
					"selfParkingSystem": true,
					"electricCurtains": true,
					"bmwIndividual": true,
					"removedEmblems": true
				}
			},
			"productionHistory": [
				{
					"date": "01.02.2022",
					"description": "Car manufactured"
				},
				{
					"date": "05.02.2022",
					"description": "Car put on parking slot"
				},
				{
					"date": "18.02.2022",
					"description": "Shippment prepratation"
				},
				{
					"date": "01.03.2022",
					"description": "Car shipped"
				}
			]
		}
	],
	"users": [
		{
			"email": "testUser@mail.com",
			"password": "$2a$10$lWvR3.rDou7se/Kgf5hMUuC8wtuPTT/Iue/gBKE.FyRua1N4qNSRS",
			"id": 1
		}
	]
}
